Data Manipulation with dplyr
…
select

For a given analysis, you may only need a subset of the columns in a data table; extracting only what you need can helpfully de-clutter, especially when you have large datasets. You can select columns using select.

You can specify the columns you want to keep by naming all of them:

select(litters_data, group, litter_number, sex, pd_walk)
## # A tibble: 313 x 4
##   group litter_number   sex pd_walk
##   <chr>         <chr> <int>   <int>
## 1  Con7            85     1      11
## 2  Con7            85     1      12
## 3  Con7      1/2/95/2     1       9
## # ... with 310 more rows

You can specify the specify a range of columns to keep:

select(litters_data, group:pd_walk)
## # A tibble: 313 x 6
##   group litter_number   sex gd_of_dob pd_ears pd_walk
##   <chr>         <chr> <int>     <int>   <int>   <int>
## 1  Con7            85     1        20       4      11
## 2  Con7            85     1        20       4      12
## 3  Con7      1/2/95/2     1        19       5       9
## # ... with 310 more rows

You can also specify columns you’d like to remove:

select(litters_data, -pd_ears)
## # A tibble: 313 x 5
##   group litter_number   sex gd_of_dob pd_walk
##   <chr>         <chr> <int>     <int>   <int>
## 1  Con7            85     1        20      11
## 2  Con7            85     1        20      12
## 3  Con7      1/2/95/2     1        19       9
## # ... with 310 more rows

You can rename variables as part of this process:

select(litters_data, GROUP = group, LiTtEr_NuMbEr = litter_number)
## # A tibble: 313 x 2
##   GROUP LiTtEr_NuMbEr
##   <chr>         <chr>
## 1  Con7            85
## 2  Con7            85
## 3  Con7      1/2/95/2
## # ... with 310 more rows

If all you want to do is rename something, you can use rename instead of select. This will rename the variables you care about, and keep everything else:

rename(litters_data, GROUP = group, LiTtEr_NuMbEr = litter_number)
## # A tibble: 313 x 6
##   GROUP LiTtEr_NuMbEr   sex gd_of_dob pd_ears pd_walk
##   <chr>         <chr> <int>     <int>   <int>   <int>
## 1  Con7            85     1        20       4      11
## 2  Con7            85     1        20       4      12
## 3  Con7      1/2/95/2     1        19       5       9
## # ... with 310 more rows

There are some handy helper functions for select; read about all of them using ?select_helpers. The one I use most frequently is everything(), which is handy for reorganizing columns without discarding anything:

select(litters_data, litter_number, sex, everything())
## # A tibble: 313 x 6
##   litter_number   sex group gd_of_dob pd_ears pd_walk
##           <chr> <int> <chr>     <int>   <int>   <int>
## 1            85     1  Con7        20       4      11
## 2            85     1  Con7        20       4      12
## 3      1/2/95/2     1  Con7        19       5       9
## # ... with 310 more rows
…
Filtering can be helpful for limiting a dataset to only those observations needed for an analysis. However, I recommend against the creation of many data subsets (e.g. one for male pups and one for female pups). This can clutter up your workspace, and we’ll see good tools for the analysis of subsets before long.

mutate

Sometimes you need to select columns; sometimes you need to change them or create new ones. You can do this using mutate.

The example below creates a new variable measuring the delay between pd_ears and pd_walk; modifies the existing group variable; and creates a new sex variable that takes character values.

mutate(litters_data,
  delay = pd_walk - pd_ears,
  group = tolower(group),
  sex_ch = "male",
  sex_ch = replace(sex_ch, sex == 2, "female")
)
## # A tibble: 313 x 8
##   group litter_number   sex gd_of_dob pd_ears pd_walk delay sex_ch
##   <chr>         <chr> <int>     <int>   <int>   <int> <int>  <chr>
## 1  con7            85     1        20       4      11     7   male
## 2  con7            85     1        20       4      12     8   male
## 3  con7      1/2/95/2     1        19       5       9     4   male
## # ... with 310 more rows
…
## cols(
##   Group = col_character(),
##   Litter.Number = col_character(),
##   Sex = col_integer(),
##   GD.of.DOB = col_integer(),
##   PD.ears = col_integer(),
##   PD.walk = col_integer()
## )
litters_data_clean_names = clean_names(litters_data_raw)
litters_data_selected_cols = select(litters_data_clean_names, -pd_ears)
litters_data_with_sex = mutate(litters_data_selected_cols, 
  sex_ch = "male",
  sex_ch = replace(sex_ch, sex == 2, "female"))
litters_data_with_sex
## # A tibble: 313 x 6
##   group litter_number   sex gd_of_dob pd_walk sex_ch
##   <chr>         <chr> <int>     <int>   <int>  <chr>
## 1  Con7            85     1        20      11   male
## 2  Con7            85     1        20      12   male
## 3  Con7      1/2/95/2     1        19       9   male
## # ... with 310 more rows
…
      ), 
    -pd_ears),
  sex_ch = "male",
  sex_ch = replace(sex_ch, sex == 2, "female"))
## Parsed with column specification:
## cols(
##   Group = col_character(),
##   Litter.Number = col_character(),
##   Sex = col_integer(),
##   GD.of.DOB = col_integer(),
##   PD.ears = col_integer(),
##   PD.walk = col_integer()
## )
litters_data_clean
## # A tibble: 313 x 6
##   group litter_number   sex gd_of_dob pd_walk sex_ch
##   <chr>         <chr> <int>     <int>   <int>  <chr>
## 1  Con7            85     1        20      11   male
## 2  Con7            85     1        20      12   male
## 3  Con7      1/2/95/2     1        19       9   male
## # ... with 310 more rows
…
  clean_names() %>%
  select(-pd_ears) %>%
  mutate(sex_ch = "male",
         sex_ch = replace(sex_ch, sex == 2, "female"))
## Parsed with column specification:
## cols(
##   Group = col_character(),
##   Litter.Number = col_character(),
##   Sex = col_integer(),
##   GD.of.DOB = col_integer(),
##   PD.ears = col_integer(),
##   PD.walk = col_integer()
## )
litters_data
## # A tibble: 313 x 6
##   group litter_number   sex gd_of_dob pd_walk sex_ch
##   <chr>         <chr> <int>     <int>   <int>  <chr>
## 1  Con7            85     1        20      11   male
## 2  Con7            85     1        20      12   male
## 3  Con7      1/2/95/2     1        19       9   male
## # ... with 310 more rows
…
