Data Import
…
Great – we’ve imported data! The first argument to read_csv is the path to the data, and the line above assigns the result of read_csv to litters_data. This function call also prints information about the column parsing. We’ll talk more about both of these shortly.

Looking at data

The first thing to do after importing the data (unless read_csv gives warnings) is to look at it. If there are unexpected results during data import, you’ll catch a lot of them here. In addition to printing the data, I often use str, head, and tail:

litters_data
## # A tibble: 313 x 6
##    Group Litter.Number   Sex GD.of.DOB PD.ears PD.walk
##    <chr>         <chr> <int>     <int>   <int>   <int>
##  1  Con7            85     1        20       4      11
##  2  Con7            85     1        20       4      12
##  3  Con7      1/2/95/2     1        19       5       9
##  4  Con7      1/2/95/2     1        19       5      10
##  5  Con7  5/5/3/83/3-3     1        19       5      10
##  6  Con7  5/5/3/83/3-3     1        19       5       9
##  7  Con7    5/4/2/95/2     1        19      NA       9
##  8  Con7    4/2/95/3-3     1        20       4       8
##  9  Con7    4/2/95/3-3     1        20       4       9
## 10  Con7    2/2/95/3-2     1        20       4      10
## # ... with 303 more rows
…
Column parsing also allows a shorthand for almost every data type.

litters_data = read_csv(file = "./data/FAS_litters.csv",
  col_types = "ccicdd"
)
litters_data
## # A tibble: 313 x 6
##    Group Litter.Number   Sex GD.of.DOB PD.ears PD.walk
##    <chr>         <chr> <int>     <chr>   <dbl>   <dbl>
##  1  Con7            85     1        20       4      11
##  2  Con7            85     1        20       4      12
##  3  Con7      1/2/95/2     1        19       5       9
##  4  Con7      1/2/95/2     1        19       5      10
##  5  Con7  5/5/3/83/3-3     1        19       5      10
##  6  Con7  5/5/3/83/3-3     1        19       5       9
##  7  Con7    5/4/2/95/2     1        19      NA       9
##  8  Con7    4/2/95/3-3     1        20       4       8
##  9  Con7    4/2/95/3-3     1        20       4       9
## 10  Con7    2/2/95/3-2     1        20       4      10
## # ... with 303 more rows
…
