Exploratory analysis using group_by
…
weather = 
  meteo_pull_monitors(c("USW00094728", "USC00519397", "USS0023B17S"),
                      var = c("PRCP", "TMIN", "TMAX"), 
                      date_min = "2016-01-01",
                      date_max = "2016-12-31") %>%
  mutate(
    name = recode(id, USW00094728 = "CentralPark_NY", 
                      USC00519397 = "Waikiki_HA",
                      USS0023B17S = "Waterhole_WA"),
    tmin = tmin / 10,
    tmax = tmax / 10,
    month = lubridate::floor_date(date, unit = "month")) %>%
  select(name, id, date, month, everything())
weather
## # A tibble: 1,098 x 7
##              name          id       date      month  prcp  tmax  tmin
##             <chr>       <chr>     <date>     <date> <dbl> <dbl> <dbl>
##  1 CentralPark_NY USW00094728 2016-01-01 2016-01-01     0   5.6   1.1
##  2 CentralPark_NY USW00094728 2016-01-02 2016-01-01     0   4.4   0.0
##  3 CentralPark_NY USW00094728 2016-01-03 2016-01-01     0   7.2   1.7
##  4 CentralPark_NY USW00094728 2016-01-04 2016-01-01     0   2.2  -9.9
##  5 CentralPark_NY USW00094728 2016-01-05 2016-01-01     0  -1.6 -11.6
##  6 CentralPark_NY USW00094728 2016-01-06 2016-01-01     0   5.0  -3.8
##  7 CentralPark_NY USW00094728 2016-01-07 2016-01-01     0   7.8  -0.5
##  8 CentralPark_NY USW00094728 2016-01-08 2016-01-01     0   7.8  -0.5
##  9 CentralPark_NY USW00094728 2016-01-09 2016-01-01     0   8.3   4.4
## 10 CentralPark_NY USW00094728 2016-01-10 2016-01-01   457  15.0   4.4
## # ... with 1,088 more rows
…
You can also group by more than one variable if you need more refined summaries.

weather %>%
  group_by(name, month) %>%
  summarize(mean_tmax = mean(tmax),
            median_tmax = median(tmax))
## # A tibble: 36 x 4
## # Groups:   name [?]
##             name      month mean_tmax median_tmax
##            <chr>     <date>     <dbl>       <dbl>
## 1 CentralPark_NY 2016-01-01  4.893548         5.0
## 2 CentralPark_NY 2016-02-01  7.137931         5.0
## 3 CentralPark_NY 2016-03-01 14.109677        13.3
## # ... with 33 more rows
…
Window functions

Here we’ve used mean() to compute the mean within each group (a single number) and taken the difference. Window functions, in contrast, use n inputs and return n outputs, and the outputs depend on all the inputs. You’re most likely to need ranking functions and offsets, which we illustrate below.

Find temperature ranking within month.

weather %>%
  group_by(name, month) %>%
  mutate(temp_ranking = min_rank(tmax))
## # A tibble: 1,098 x 8
## # Groups:   name, month [36]
##             name          id       date      month  prcp  tmax  tmin
##            <chr>       <chr>     <date>     <date> <dbl> <dbl> <dbl>
## 1 CentralPark_NY USW00094728 2016-01-01 2016-01-01     0   5.6   1.1
## 2 CentralPark_NY USW00094728 2016-01-02 2016-01-01     0   4.4   0.0
## 3 CentralPark_NY USW00094728 2016-01-03 2016-01-01     0   7.2   1.7
## # ... with 1,095 more rows, and 1 more variables: temp_ranking <int>

Retain the coldest day within each month:

weather %>%
  group_by(name, month) %>%
  filter(min_rank(tmax) < 2)
## # A tibble: 47 x 7
## # Groups:   name, month [36]
##             name          id       date      month  prcp  tmax  tmin
##            <chr>       <chr>     <date>     <date> <dbl> <dbl> <dbl>
## 1 CentralPark_NY USW00094728 2016-01-23 2016-01-01   587  -2.7  -4.3
## 2 CentralPark_NY USW00094728 2016-02-14 2016-02-01     0  -9.3 -18.2
## 3 CentralPark_NY USW00094728 2016-03-03 2016-03-01     0   2.2  -3.2
## # ... with 44 more rows

Retain the warmest day within each month:

weather %>%
  group_by(name, month) %>%
  filter(min_rank(desc(tmax)) < 2)
## # A tibble: 63 x 7
## # Groups:   name, month [36]
##             name          id       date      month  prcp  tmax  tmin
##            <chr>       <chr>     <date>     <date> <dbl> <dbl> <dbl>
## 1 CentralPark_NY USW00094728 2016-01-10 2016-01-01   457  15.0   4.4
## 2 CentralPark_NY USW00094728 2016-02-20 2016-02-01     0  16.1   3.9
## 3 CentralPark_NY USW00094728 2016-02-25 2016-02-01     5  16.1   2.8
## # ... with 60 more rows

In both of these, we’ve skipped a mutate statement that would store the ranking and gone straight to filtering based on the result.

Find the day-by-day change in temp within each station over the year.

weather %>%
  group_by(name) %>%
  mutate(temp_change = tmax - lag(tmax))
## # A tibble: 1,098 x 8
## # Groups:   name [3]
##             name          id       date      month  prcp  tmax  tmin
##            <chr>       <chr>     <date>     <date> <dbl> <dbl> <dbl>
## 1 CentralPark_NY USW00094728 2016-01-01 2016-01-01     0   5.6   1.1
## 2 CentralPark_NY USW00094728 2016-01-02 2016-01-01     0   4.4   0.0
## 3 CentralPark_NY USW00094728 2016-01-03 2016-01-01     0   7.2   1.7
## # ... with 1,095 more rows, and 1 more variables: temp_change <dbl>
…
