List Columns and Bootstrapping
…
Here I’ve used nest to nest a specified column range within remaining variable values.

The name column is a character column – if you pull this column from the weather data frame, the result is a character vector. Similarly, the data column is a list column – on it’s own, it’s a list.

weather_nest %>% pull(name)
## [1] "CentralPark_NY" "Waikiki_HA"     "Waterhole_WA"
weather_nest %>% pull(data)
## [[1]]
## # A tibble: 366 x 4
##          date  prcp  tmax  tmin
##        <date> <dbl> <dbl> <dbl>
##  1 2016-01-01     0   5.6   1.1
##  2 2016-01-02     0   4.4   0.0
##  3 2016-01-03     0   7.2   1.7
##  4 2016-01-04     0   2.2  -9.9
##  5 2016-01-05     0  -1.6 -11.6
##  6 2016-01-06     0   5.0  -3.8
##  7 2016-01-07     0   7.8  -0.5
##  8 2016-01-08     0   7.8  -0.5
##  9 2016-01-09     0   8.3   4.4
## 10 2016-01-10   457  15.0   4.4
## # ... with 356 more rows
## 
## [[2]]
## # A tibble: 366 x 4
##          date  prcp  tmax  tmin
##        <date> <dbl> <dbl> <dbl>
##  1 2016-01-01     0  29.4  16.7
##  2 2016-01-02     0  28.3  16.7
##  3 2016-01-03     0  28.3  16.7
##  4 2016-01-04     0  28.3  16.1
##  5 2016-01-05     0  27.2  16.7
##  6 2016-01-06     0  27.2  20.0
##  7 2016-01-07    46  27.8  18.3
##  8 2016-01-08     3  28.3  17.8
##  9 2016-01-09     8  27.8  19.4
## 10 2016-01-10     3  28.3  18.3
## # ... with 356 more rows
## 
## [[3]]
## # A tibble: 366 x 4
##          date  prcp  tmax  tmin
##        <date> <dbl> <dbl> <dbl>
##  1 2016-01-01     0   1.7  -5.9
##  2 2016-01-02    25  -0.1  -6.0
##  3 2016-01-03     0  -5.0 -10.0
##  4 2016-01-04    25   0.3  -9.8
##  5 2016-01-05    25   1.9  -1.8
##  6 2016-01-06    25   1.4  -2.6
##  7 2016-01-07     0   1.4  -3.9
##  8 2016-01-08     0   1.1  -4.0
##  9 2016-01-09     0   1.4  -4.5
## 10 2016-01-10     0   2.3  -3.8
## # ... with 356 more rows

The list column really is a list, and will behave as such elsewhere in R. So, for example, you can examine the first list entry using usual list index procedures.

weather_nest$data[[1]]
## # A tibble: 366 x 4
##          date  prcp  tmax  tmin
##        <date> <dbl> <dbl> <dbl>
##  1 2016-01-01     0   5.6   1.1
##  2 2016-01-02     0   4.4   0.0
##  3 2016-01-03     0   7.2   1.7
##  4 2016-01-04     0   2.2  -9.9
##  5 2016-01-05     0  -1.6 -11.6
##  6 2016-01-06     0   5.0  -3.8
##  7 2016-01-07     0   7.8  -0.5
##  8 2016-01-08     0   7.8  -0.5
##  9 2016-01-09     0   8.3   4.4
## 10 2016-01-10   457  15.0   4.4
## # ... with 356 more rows

Of course, if you can nest data you should be able to unnest it as well, and you can (with the caveat that you’re unnesting a list column that contains a data frame).

unnest(weather_nest)
## # A tibble: 1,098 x 6
##              name          id       date  prcp  tmax  tmin
##             <chr>       <chr>     <date> <dbl> <dbl> <dbl>
##  1 CentralPark_NY USW00094728 2016-01-01     0   5.6   1.1
##  2 CentralPark_NY USW00094728 2016-01-02     0   4.4   0.0
##  3 CentralPark_NY USW00094728 2016-01-03     0   7.2   1.7
##  4 CentralPark_NY USW00094728 2016-01-04     0   2.2  -9.9
##  5 CentralPark_NY USW00094728 2016-01-05     0  -1.6 -11.6
##  6 CentralPark_NY USW00094728 2016-01-06     0   5.0  -3.8
##  7 CentralPark_NY USW00094728 2016-01-07     0   7.8  -0.5
##  8 CentralPark_NY USW00094728 2016-01-08     0   7.8  -0.5
##  9 CentralPark_NY USW00094728 2016-01-09     0   8.3   4.4
## 10 CentralPark_NY USW00094728 2016-01-10   457  15.0   4.4
## # ... with 1,088 more rows
…
instacart
## # A tibble: 1,384,617 x 15
##    order_id product_id add_to_cart_order reordered user_id eval_set
##       <int>      <int>             <int>     <int>   <int>    <chr>
##  1        1      49302                 1         1  112108    train
##  2        1      11109                 2         1  112108    train
##  3        1      10246                 3         0  112108    train
##  4        1      49683                 4         0  112108    train
##  5        1      43633                 5         1  112108    train
##  6        1      13176                 6         0  112108    train
##  7        1      47209                 7         0  112108    train
##  8        1      22035                 8         1  112108    train
##  9       36      39612                 1         0   79431    train
## 10       36      19660                 2         1   79431    train
## # ... with 1,384,607 more rows, and 9 more variables: order_number <int>,
## #   order_dow <int>, order_hour_of_day <int>,
## #   days_since_prior_order <int>, product_name <chr>, aisle_id <int>,
## #   department_id <int>, aisle <chr>, department <chr>
…
We’ll use the bootstrap to make inference for the data on the right. This is intended largely as an illustration for how to use the bootstrap in cases where the theoretical distribution is “unknown”, although for these data in particular weighted least squares is more appropriate.

Drawing one bootstrap sample

Let’s write a quick function to generate our bootstrap samples. This function should have the data frame as the argument, and should return a sample from that dataframe drawn with replacement.

boot_sample = function(df) {
  sample_frac(df, replace = TRUE)
}

We should also do a quick check to see if this is working.

boot_sample(sim_df_nonconst)
## # A tibble: 250 x 3
##            x        error        y
##        <dbl>        <dbl>    <dbl>
##  1 0.8143844  0.378151316 4.821305
##  2 2.5324943  0.003005011 9.600488
##  3 0.7643021 -0.406254684 3.886652
##  4 0.4130584 -0.073713187 3.165462
##  5 0.4468188 -0.189337605 3.151119
##  6 1.7516382  0.113639546 7.368554
##  7 0.3410232 -0.466086551 2.556983
##  8 1.4392126 -0.356144561 5.961493
##  9 0.5995801  0.963949357 4.762690
## 10 1.7566668  0.161468988 7.431470
## # ... with 240 more rows
That looks about right.

Drawing many bootstrap samples

We’re going to draw repeated samples with replacement, and then analyze each of those samples separately. It would be really great to have a data structure that makes it possible to keep track of everything. Maybe a list column??!

Let’s give that a try:

boot_straps = data_frame(
  strap_number = 1:100,
  strap_sample = rerun(100, boot_sample(sim_df_nonconst))
)

boot_straps
## # A tibble: 100 x 2
##    strap_number       strap_sample
##           <int>             <list>
##  1            1 <tibble [250 x 3]>
##  2            2 <tibble [250 x 3]>
##  3            3 <tibble [250 x 3]>
##  4            4 <tibble [250 x 3]>
##  5            5 <tibble [250 x 3]>
##  6            6 <tibble [250 x 3]>
##  7            7 <tibble [250 x 3]>
##  8            8 <tibble [250 x 3]>
##  9            9 <tibble [250 x 3]>
## 10           10 <tibble [250 x 3]>
## # ... with 90 more rows

We can do a few of quick checks to make sure this has worked as intended. First we’ll look at a couple of bootstrap samples.

boot_straps %>% 
  filter(strap_number %in% 1:2) %>% 
  mutate(strap_sample = map(strap_sample, ~arrange(.x, x))) %>% 
  pull(strap_sample)
## [[1]]
## # A tibble: 250 x 3
##             x       error          y
##         <dbl>       <dbl>      <dbl>
##  1 -1.5308715  1.49730217 -1.0953124
##  2 -1.5308715  1.49730217 -1.0953124
##  3 -1.2329380 -1.97958137 -3.6783954
##  4 -1.2329380 -1.97958137 -3.6783954
##  5 -0.9901198 -0.49614878 -1.4665082
##  6 -0.9901198 -0.49614878 -1.4665082
##  7 -0.9083691  1.06963768  0.3445302
##  8 -0.9060899 -0.03923387 -0.7575034
##  9 -0.9060899 -0.03923387 -0.7575034
## 10 -0.6164885 -0.48290977 -0.3323753
## # ... with 240 more rows
## 
## [[2]]
## # A tibble: 250 x 3
##             x       error          y
##         <dbl>       <dbl>      <dbl>
##  1 -2.0234321 -2.02348598 -6.0937823
##  2 -2.0234321 -2.02348598 -6.0937823
##  3 -1.2329380 -1.97958137 -3.6783954
##  4 -0.9164560 -0.71560010 -1.4649682
##  5 -0.9083691  1.06963768  0.3445302
##  6 -0.9083691  1.06963768  0.3445302
##  7 -0.6164885 -0.48290977 -0.3323753
##  8 -0.5944465  1.63525512  1.8519156
##  9 -0.5944465  1.63525512  1.8519156
## 10 -0.4682730  0.03944407  0.6346249
## # ... with 240 more rows
…
bootstrap

Bootstrapping is common enough that it’s been automated, to some degree, in the modelr::boostrap function. This function makes it easy to draw bootstrap samples, and stores them in a mostly-helpful way – as a resample object that can be converted to and treated like a data frame.

library(modelr)

boot_straps = 
  sim_df_nonconst %>% 
  bootstrap(n = 100)

boot_straps$strap[[1]]
## <resample [250 x 3]> 243, 50, 152, 185, 171, 189, 30, 135, 188, 39, ...
as_data_frame(boot_straps$strap[[1]])
## # A tibble: 250 x 3
##             x       error         y
##         <dbl>       <dbl>     <dbl>
##  1  1.5914236 -0.06631404  6.707957
##  2  2.7171293  0.51787611 10.669264
##  3  3.7832655  0.75271387 14.102510
##  4  0.7061986 -0.36579665  3.752799
##  5  0.2119224  0.22232217  2.858089
##  6  0.6205200 -0.43105296  3.430507
##  7  0.4293864  0.09282566  3.380985
##  8  1.0442217 -0.07629384  5.056371
##  9  2.7794938 -0.84352300  9.494959
## 10 -0.9164560 -0.71560010 -1.464968
## # ... with 240 more rows
…
