List Columns and Bootstrapping
…
weather
## # A tibble: 3 x 3
##             name          id               data
##            <chr>       <chr>             <list>
## 1 CentralPark_NY USW00094728 <tibble [366 x 4]>
## 2     Waikiki_HA USC00519397 <tibble [366 x 4]>
## 3   Waterhole_WA USS0023B17S <tibble [366 x 4]>

The data column is a list column – on it’s own, it’s a list. This is similar to the name column being a character column, becuase it contains a character vector.

Inpecting the data column gives an idea of what’s going on.

weather$data
## [[1]]
## # A tibble: 366 x 4
##          date  prcp  tmax  tmin
##        <date> <dbl> <dbl> <dbl>
##  1 2016-01-01     0   5.6   1.1
##  2 2016-01-02     0   4.4   0.0
##  3 2016-01-03     0   7.2   1.7
##  4 2016-01-04     0   2.2  -9.9
##  5 2016-01-05     0  -1.6 -11.6
##  6 2016-01-06     0   5.0  -3.8
##  7 2016-01-07     0   7.8  -0.5
##  8 2016-01-08     0   7.8  -0.5
##  9 2016-01-09     0   8.3   4.4
## 10 2016-01-10   457  15.0   4.4
## # ... with 356 more rows
## 
## [[2]]
## # A tibble: 366 x 4
##          date  prcp  tmax  tmin
##        <date> <dbl> <dbl> <dbl>
##  1 2016-01-01     0  29.4  16.7
##  2 2016-01-02     0  28.3  16.7
##  3 2016-01-03     0  28.3  16.7
##  4 2016-01-04     0  28.3  16.1
##  5 2016-01-05     0  27.2  16.7
##  6 2016-01-06     0  27.2  20.0
##  7 2016-01-07    46  27.8  18.3
##  8 2016-01-08     3  28.3  17.8
##  9 2016-01-09     8  27.8  19.4
## 10 2016-01-10     3  28.3  18.3
## # ... with 356 more rows
## 
## [[3]]
## # A tibble: 366 x 4
##          date  prcp  tmax  tmin
##        <date> <dbl> <dbl> <dbl>
##  1 2016-01-01     0   1.7  -5.9
##  2 2016-01-02    25  -0.1  -6.0
##  3 2016-01-03     0  -5.0 -10.0
##  4 2016-01-04    25   0.3  -9.8
##  5 2016-01-05    25   1.9  -1.8
##  6 2016-01-06    25   1.4  -2.6
##  7 2016-01-07     0   1.4  -3.9
##  8 2016-01-08     0   1.1  -4.0
##  9 2016-01-09     0   1.4  -4.5
## 10 2016-01-10     0   2.3  -3.8
## # ... with 356 more rows

We can also access specific entries in the list column, which (in this case) are data frames.

weather$data[[1]]
## # A tibble: 366 x 4
##          date  prcp  tmax  tmin
##        <date> <dbl> <dbl> <dbl>
##  1 2016-01-01     0   5.6   1.1
##  2 2016-01-02     0   4.4   0.0
##  3 2016-01-03     0   7.2   1.7
##  4 2016-01-04     0   2.2  -9.9
##  5 2016-01-05     0  -1.6 -11.6
##  6 2016-01-06     0   5.0  -3.8
##  7 2016-01-07     0   7.8  -0.5
##  8 2016-01-08     0   7.8  -0.5
##  9 2016-01-09     0   8.3   4.4
## 10 2016-01-10   457  15.0   4.4
## # ... with 356 more rows

Nesting columns can help with data organization / understanding by masking stuff you’re less concerned about right now and clarifying the things you are concerned about. It also simplifies the use of analytic approaches across levels of a higher variable.

Also possible to reverse if your list col is contains data frames.

unnest(weather)
## # A tibble: 1,098 x 6
##              name          id       date  prcp  tmax  tmin
##             <chr>       <chr>     <date> <dbl> <dbl> <dbl>
##  1 CentralPark_NY USW00094728 2016-01-01     0   5.6   1.1
##  2 CentralPark_NY USW00094728 2016-01-02     0   4.4   0.0
##  3 CentralPark_NY USW00094728 2016-01-03     0   7.2   1.7
##  4 CentralPark_NY USW00094728 2016-01-04     0   2.2  -9.9
##  5 CentralPark_NY USW00094728 2016-01-05     0  -1.6 -11.6
##  6 CentralPark_NY USW00094728 2016-01-06     0   5.0  -3.8
##  7 CentralPark_NY USW00094728 2016-01-07     0   7.8  -0.5
##  8 CentralPark_NY USW00094728 2016-01-08     0   7.8  -0.5
##  9 CentralPark_NY USW00094728 2016-01-09     0   8.3   4.4
## 10 CentralPark_NY USW00094728 2016-01-10   457  15.0   4.4
## # ... with 1,088 more rows
…
write a function to do resampling from the population.

BS samples as list col

boot_sample = function(df) {
  sample_frac(df, replace = TRUE)
}

boot_straps = data_frame(
  strap_number = 1:100,
  strap_sample = rerun(100, boot_sample(df_2))
)

boot_straps
## # A tibble: 100 x 2
##    strap_number       strap_sample
##           <int>             <list>
##  1            1 <tibble [250 x 3]>
##  2            2 <tibble [250 x 3]>
##  3            3 <tibble [250 x 3]>
##  4            4 <tibble [250 x 3]>
##  5            5 <tibble [250 x 3]>
##  6            6 <tibble [250 x 3]>
##  7            7 <tibble [250 x 3]>
##  8            8 <tibble [250 x 3]>
##  9            9 <tibble [250 x 3]>
## 10           10 <tibble [250 x 3]>
## # ... with 90 more rows

some quick checks

boot_straps %>% 
  mutate(mean_y = map_dbl(.x = strap_sample, ~mean(.x$y) ) )
## # A tibble: 100 x 3
##    strap_number       strap_sample   mean_y
##           <int>             <list>    <dbl>
##  1            1 <tibble [250 x 3]> 4.549890
##  2            2 <tibble [250 x 3]> 4.942721
##  3            3 <tibble [250 x 3]> 4.960889
##  4            4 <tibble [250 x 3]> 5.167353
##  5            5 <tibble [250 x 3]> 4.866360
##  6            6 <tibble [250 x 3]> 4.671315
##  7            7 <tibble [250 x 3]> 4.927128
##  8            8 <tibble [250 x 3]> 5.112649
##  9            9 <tibble [250 x 3]> 4.870607
## 10           10 <tibble [250 x 3]> 5.005710
## # ... with 90 more rows
…
bootstrap

Show how this works using bootstrap()

library(modelr)

boot_straps = 
  df_2 %>% 
  bootstrap(n = 100)

boot_straps$strap[[1]]
## <resample [250 x 3]> 38, 7, 123, 166, 194, 101, 41, 239, 22, 246, ...
as_data_frame(boot_straps$strap[[1]])
## # A tibble: 250 x 3
##             x       error          y
##         <dbl>       <dbl>      <dbl>
##  1 -0.7590868  0.14649877 -0.1307615
##  2 -0.2080762  0.10805601  1.4838275
##  3  0.9682603 -0.26555346  4.6392273
##  4  0.3226807 -0.72637797  2.2416641
##  5 -0.2770572 -0.05697992  1.1118483
##  6  0.2381957 -0.15842178  2.5561652
##  7  2.0865514  0.30215294  8.5618071
##  8 -0.1280560  0.15524447  1.7710765
##  9 -1.1852868  0.31634043 -1.2395201
## 10  0.8774499 -0.34412071  4.2882289
## # ... with 240 more rows
…
