Reading data from the web
…
j <- jsonlite::fromJSON(con)

#head(j$items)

r_questions <- j$items %>%
  flatten() %>%
  as_tibble()

r_questions
## # A tibble: 100 x 21
##         tags is_answered view_count answer_count score last_activity_date
##  *    <list>       <lgl>      <int>        <int> <int>              <int>
##  1 <chr [5]>       FALSE          3            0     0         1506892059
##  2 <chr [3]>       FALSE          4            0     0         1506891663
##  3 <chr [3]>       FALSE          2            0     0         1506891352
##  4 <chr [2]>       FALSE          8            1     0         1506892318
##  5 <chr [2]>        TRUE          4            1     0         1506892190
##  6 <chr [4]>       FALSE          6            1     0         1506892056
##  7 <chr [2]>       FALSE          5            0     0         1506890097
##  8 <chr [3]>        TRUE         14            1     0         1506891225
##  9 <chr [5]>       FALSE          9            1     0         1506890522
## 10 <chr [3]>       FALSE          4            0     0         1506892033
## # ... with 90 more rows, and 15 more variables: creation_date <int>,
## #   question_id <int>, link <chr>, title <chr>, accepted_answer_id <int>,
## #   last_edit_date <int>, closed_date <int>, closed_reason <chr>,
## #   owner.reputation <int>, owner.user_id <int>, owner.user_type <chr>,
## #   owner.accept_rate <int>, owner.profile_image <chr>,
## #   owner.display_name <chr>, owner.link <chr>

library(httr)
req = GET("https://data.cityofnewyork.us/resource/9w7m-hzhe.json",
          query = list(
            zipcode = 10023
          ))
con = content(req, "text")
j <- jsonlite::fromJSON(con) %>%
  as_tibble()
j
## # A tibble: 1,000 x 18
##                                             action      boro building
##  *                                           <chr>     <chr>    <chr>
##  1 Violations were cited in the following area(s). MANHATTAN      132
##  2 Violations were cited in the following area(s). MANHATTAN      141
##  3 Violations were cited in the following area(s). MANHATTAN      104
##  4 Violations were cited in the following area(s). MANHATTAN      303
##  5 Violations were cited in the following area(s). MANHATTAN       57
##  6 Violations were cited in the following area(s). MANHATTAN      251
##  7 Violations were cited in the following area(s). MANHATTAN        0
##  8 Violations were cited in the following area(s). MANHATTAN      117
##  9 Violations were cited in the following area(s). MANHATTAN      303
## 10 Violations were cited in the following area(s). MANHATTAN       61
## # ... with 990 more rows, and 15 more variables: camis <chr>,
## #   critical_flag <chr>, cuisine_description <chr>, dba <chr>,
## #   inspection_date <chr>, inspection_type <chr>, phone <chr>,
## #   record_date <chr>, score <chr>, street <chr>, violation_code <chr>,
## #   violation_description <chr>, zipcode <chr>, grade <chr>,
## #   grade_date <chr>

library(httr)
req = GET("https://data.ny.gov/resource/hvwh-qtfg.json")
con = content(req, "text")
j <- jsonlite::fromJSON(con) %>%
  select(-entrance_location, -station_location) %>%
  as.tibble()

j %>% group_by(station_name) %>% summarize(n_enter = n()) %>% arrange(desc(n_enter))
## # A tibble: 190 x 2
##                      station_name n_enter
##                             <chr>   <int>
##  1                        34th St      41
##  2                        23rd St      31
##  3                        14th St      26
##  4                        42nd St      18
##  5                        59th St      18
##  6 47-50th Sts Rockefeller Center      17
##  7                        50th St      16
##  8                        57th St      16
##  9                      Rector St      15
## 10                    Chambers St      14
## # ... with 180 more rows
…
