Strings and factors
…
The code below updates the data processing pipeline for the pups data using strignr and forcats. The result is the same, and the differences are pretty small, but this is a bit cleaner.

pulse_data = read_sas("./data/public_pulse_data.sas7bdat") %>%
  clean_names() %>%
  gather(key = visit, value = bdi, bdiscore_bl:bdiscore_12m) %>%
  mutate(visit = str_replace(visit, "bdiscore_", ""),
         visit = str_replace(visit, "bl", "00m"),
         visit = fct_relevel(visit, str_c(c("00", "01", "06", "12"), "m"))) %>%
  arrange(id, visit)
## Warning: attributes are not identical across measure variables;
## they will be dropped

print(pulse_data, n = 12)
## # A tibble: 4,348 x 5
##       id      age   sex  visit   bdi
##    <dbl>    <dbl> <chr> <fctr> <dbl>
##  1 10003 48.03836  male    00m     7
##  2 10003 48.03836  male    01m     1
##  3 10003 48.03836  male    06m     2
##  4 10003 48.03836  male    12m     0
##  5 10015 72.47123  male    00m     6
##  6 10015 72.47123  male    01m    NA
##  7 10015 72.47123  male    06m    NA
##  8 10015 72.47123  male    12m    NA
##  9 10022 58.50959  male    00m    14
## 10 10022 58.50959  male    01m     3
## 11 10022 58.50959  male    06m     8
## 12 10022 58.50959  male    12m    NA
## # ... with 4,336 more rows
…
