Tidy text
…
inspection_sentiments = 
  right_join(nyc_inspections, restaurant_word_sentiments, 
             by = "inspection_num")

inspection_sentiments %>% 
  filter(sentiment < -5) %>% 
  select(violation_description) %>% 
  print(n = 2)
## # A tibble: 8,071 x 1
##                                                         violation_description
##                                                                         <chr>
## 1 "Filth flies or food/refuse/sewage-associated (FRSA) flies present in facil
## 2 "Filth flies or food/refuse/sewage-associated (FRSA) flies present in facil
## # ... with 8,069 more rows
…
