Visualization with ggplot2
…
weather = 
  meteo_pull_monitors(c("USW00094728", "USC00519397", "USS0023B17S"),
                      var = c("PRCP", "TMIN", "TMAX"), 
                      date_min = "2016-01-01",
                      date_max = "2016-12-31") %>%
  mutate(
    name = recode(id, USW00094728 = "CentralPark_NY", 
                      USC00519397 = "Waikiki_HA",
                      USS0023B17S = "Waterhole_WA"),
    tmin = tmin / 10,
    tmax = tmax / 10) %>%
  select(name, id, everything())
weather
## # A tibble: 1,098 x 6
##             name          id       date  prcp  tmax  tmin
##            <chr>       <chr>     <date> <dbl> <dbl> <dbl>
## 1 CentralPark_NY USW00094728 2016-01-01     0   5.6   1.1
## 2 CentralPark_NY USW00094728 2016-01-02     0   4.4   0.0
## 3 CentralPark_NY USW00094728 2016-01-03     0   7.2   1.7
## 4 CentralPark_NY USW00094728 2016-01-04     0   2.2  -9.9
## 5 CentralPark_NY USW00094728 2016-01-05     0  -1.6 -11.6
## # ... with 1,093 more rows
…
