Writing R Packages II
…
iris %>% 
  as_tibble() %>% 
  select(sepal_length)
## # A tibble: 150 x 1
##    sepal_length
##           <dbl>
##  1          5.1
##  2          4.9
##  3          4.7
##  4          4.6
##  5          5.0
##  6          5.4
##  7          4.6
##  8          5.0
##  9          4.4
## 10          4.9
## # ... with 140 more rows
…
iris %>% 
  as_tibble() %>% 
  select(sepal_length)
## Error in select(., sepal_length): unused argument (sepal_length)

iris %>% 
  as_tibble() %>% 
  dplyr::select(sepal_length)
## # A tibble: 150 x 1
##    sepal_length
##           <dbl>
##  1          5.1
##  2          4.9
##  3          4.7
##  4          4.6
##  5          5.0
##  6          5.4
##  7          4.6
##  8          5.0
##  9          4.4
## 10          4.9
## # ... with 140 more rows
…
